<?xml version="1.0" encoding="UTF-8"?>
<testsuite name="tests.RegressTests" tests="5" skipped="0" failures="0" errors="0" timestamp="2023-05-02T11:11:25" hostname="DESKTOP-9C98VUC" time="5.56">
  <properties/>
  <testcase name="Неуспешная регистрация" classname="tests.RegressTests" time="2.996"/>
  <testcase name="Запрос списка пользователей" classname="tests.RegressTests" time="0.823"/>
  <testcase name="Редактирование профиля" classname="tests.RegressTests" time="0.514"/>
  <testcase name="Создание нового профиля" classname="tests.RegressTests" time="0.614"/>
  <testcase name="Удаление профиля" classname="tests.RegressTests" time="0.603"/>
  <system-out><![CDATA[Request URI:	https://reqres.in/api/register
Body:
{
    "email": "sydney@fife"
}
{
    "error": "Missing password"
}
Request URI:	https://reqres.in/api/users?page=2
Body:			<none>
{
    "page": 2,
    "per_page": 6,
    "total": 12,
    "total_pages": 2,
    "data": [
        {
            "id": 7,
            "email": "michael.lawson@reqres.in",
            "first_name": "Michael",
            "last_name": "Lawson",
            "avatar": "https://reqres.in/img/faces/7-image.jpg"
        },
        {
            "id": 8,
            "email": "lindsay.ferguson@reqres.in",
            "first_name": "Lindsay",
            "last_name": "Ferguson",
            "avatar": "https://reqres.in/img/faces/8-image.jpg"
        },
        {
            "id": 9,
            "email": "tobias.funke@reqres.in",
            "first_name": "Tobias",
            "last_name": "Funke",
            "avatar": "https://reqres.in/img/faces/9-image.jpg"
        },
        {
            "id": 10,
            "email": "byron.fields@reqres.in",
            "first_name": "Byron",
            "last_name": "Fields",
            "avatar": "https://reqres.in/img/faces/10-image.jpg"
        },
        {
            "id": 11,
            "email": "george.edwards@reqres.in",
            "first_name": "George",
            "last_name": "Edwards",
            "avatar": "https://reqres.in/img/faces/11-image.jpg"
        },
        {
            "id": 12,
            "email": "rachel.howell@reqres.in",
            "first_name": "Rachel",
            "last_name": "Howell",
            "avatar": "https://reqres.in/img/faces/12-image.jpg"
        }
    ],
    "support": {
        "url": "https://reqres.in/#support-heading",
        "text": "To keep ReqRes free, contributions towards server costs are appreciated!"
    }
}
Request URI:	https://reqres.in/api/users/2
Body:
{
    "name": "morpheus",
    "job": "zion resident"
}
{
    "name": "morpheus",
    "job": "zion resident",
    "updatedAt": "2023-05-02T11:11:29.796Z"
}
Request URI:	https://reqres.in/api/users
Body:
{
    "name": "morpheus",
    "job": "leader"
}
{
    "name": "morpheus",
    "job": "leader",
    "id": "138",
    "createdAt": "2023-05-02T11:11:30.410Z"
}
Request URI:	https://reqres.in/api/users/2
Body:			<none>

]]></system-out>
  <system-err><![CDATA[]]></system-err>
</testsuite>
